{"api": {
  "furniture":
  { "chairs": [
    {
      "id": "rosswell",
      "name": "Rosswell",
      "image": "./buzzn_Rosswell.png",
      "price": 50,
      "bgColor": "#DEE6E1"
    },
    {
      "id": "minimal",
      "name": "Minimal",
      "image": "./buzzn_Minimal.png",
      "price": 42,
      "bgColor": "#E5E5E5"
    },
    {
      "id": "lounge",
      "name": "Lounge",
      "image": "./buzzn_Lounge.png",
      "price": 35,
      "bgColor": "#D9DCF7"
    },
    {
      "id": "velvet",
      "name": "Velvet",
      "image": "./buzzn_Velvet.png",
      "price": 53,
      "bgColor": "#EBE6E4"
    }
  ],
  "sofas": [
    {
      "id": "accent",
      "name": "Accent",
      "image": "./buzzn_Accent.png",
      "price": 150,
      "bgColor": "#D9DCF7"
    },
    {
      "id": "minimal_sofa",
      "name": "Minimal",
      "image": "./buzzn_Minimal_sofa.png",
      "price": 142,
      "bgColor": "#DFE1F0"
    },
    {
      "id": "artistic",
      "name": "Artistic",
      "image": "./buzzn_Artistic.png",
      "price": 135,
      "bgColor": "#C4D9CC"
    },
    {
      "id": "velvet",
      "name": "Morph",
      "image": "./buzzn_Morph.png",
      "price": 153,
      "bgColor": "#FCE9D5"
    }
  ]}
}}